%YAML 1.1
%TAG !u! tag:unity3d.com,2011:
--- !u!162 &1
EditorUserSettings:
  m_ObjectHideFlags: 0
  serializedVersion: 4
  m_ConfigSettings:
    RecentlyUsedScenePath-0:
      value: 22424703114646680e0b0227036c6b0719360f2b3e2c68252320092a
      flags: 0
    RecentlyUsedScenePath-1:
      value: 22424703114646680e0b0227036c6b1804121d0b3b293434633c133af6f9
      flags: 0
    RecentlyUsedScenePath-2:
      value: 22424703114646680e0b0227036c6c15020311242b3b16190367083debf42d
      flags: 0
    RecentlyUsedScenePath-3:
      value: 22424703114646680e0b0227036c6c15020311242b3b68252320092a
      flags: 0
    RecentlyUsedScenePath-4:
      value: 22424703114646680e0b0227036c701e13360f2b3e2c68252320092a
      flags: 0
    RecentlyUsedScenePath-5:
      value: 22424703114646680e0b0227036c78111b12563f22213229
      flags: 0
    RecentlyUsedScenePath-6:
      value: 22424703114646680e0b0227036c7a1e02120a1a050668252320092a
      flags: 0
    RecentlyUsedScenePath-7:
      value: 22424703114646680e0b0227036c7c1f03190c383f05233e3867083debf42d
      flags: 0
    RecentlyUsedScenePath-8:
      value: 22424703114646680e0b0227036c7e0717051c39012d2825633c133af6f9
      flags: 0
    RecentlyUsedScenePath-9:
      value: 22424703114646680e0b0227036c78111b12352f223d68252320092a
      flags: 0
    vcSharedLogLevel:
      value: 0d5e400f0650
      flags: 0
  m_VCAutomaticAdd: 1
  m_VCDebugCom: 0
  m_VCDebugCmd: 0
  m_VCDebugOut: 0
  m_SemanticMergeMode: 2
  m_VCShowFailedCheckout: 1
  m_VCOverwriteFailedCheckoutAssets: 1
  m_VCProjectOverlayIcons: 1
  m_VCHierarchyOverlayIcons: 1
  m_VCOtherOverlayIcons: 1
  m_VCAllowAsyncUpdate: 1
